<svg width="55" height="56" viewBox="0 0 55 56" fill="none" xmlns="http://www.w3.org/2000/svg">
<g clip-path="url(#clip0_1211_23893)">
<path d="M1.17368 27.3836C1.17239 32.0408 2.38926 36.5882 4.70313 40.5963L0.952393 54.2908L14.9671 50.6161C18.8433 52.7264 23.1864 53.8321 27.5998 53.8323H27.6114C42.181 53.8323 54.041 41.9766 54.0473 27.4045C54.0501 20.3432 51.3027 13.7033 46.311 8.70772C41.3202 3.71261 34.6826 0.960254 27.6104 0.957031C13.0391 0.957031 1.17991 12.8121 1.1739 27.3836" fill="url(#paint0_linear_1211_23893)"/>
<path d="M0.229882 27.3745C0.228378 32.1992 1.48886 36.9092 3.88523 41.0609L0 55.2463L14.5172 51.4399C18.5171 53.6208 23.0207 54.7707 27.6033 54.7724H27.6151C42.7074 54.7724 54.9934 42.4902 54.9999 27.3964C55.0025 20.0814 52.1562 13.2028 46.9862 8.02827C41.8156 2.85441 34.9406 0.00300781 27.6151 0C12.5202 0 0.236113 12.2804 0.230097 27.3745H0.229882ZM8.87518 40.3459L8.33313 39.4854C6.0545 35.8623 4.85181 31.6754 4.85353 27.3762C4.85847 14.8304 15.0687 4.62343 27.6237 4.62343C33.7038 4.62601 39.4177 6.99616 43.7155 11.2965C48.013 15.5972 50.3778 21.3142 50.3762 27.3947C50.3707 39.9405 40.1602 50.1487 27.6151 50.1487H27.6061C23.5213 50.1466 19.5151 49.0496 16.0213 46.9766L15.1899 46.4835L6.57506 48.7422L8.87518 40.3456V40.3459Z" fill="#E2E2E2"/>
<path d="M20.7707 15.9287C20.2581 14.7894 19.7186 14.7664 19.2311 14.7464C18.8319 14.7292 18.3756 14.7305 17.9197 14.7305C17.4634 14.7305 16.722 14.9022 16.0953 15.5864C15.4679 16.2713 13.7002 17.9265 13.7002 21.2929C13.7002 24.6595 16.1522 27.9128 16.494 28.3698C16.8363 28.8259 21.2277 35.9553 28.1826 38.698C33.9627 40.9773 35.139 40.5239 36.3935 40.4096C37.6481 40.2958 40.442 38.7549 41.0119 37.1571C41.5823 35.5596 41.5823 34.1901 41.4113 33.904C41.2403 33.6189 40.784 33.4476 40.0997 33.1056C39.4152 32.7634 36.0512 31.108 35.4241 30.8796C34.7967 30.6515 34.3406 30.5376 33.8843 31.2227C33.428 31.9068 32.1176 33.4476 31.7182 33.904C31.3193 34.3614 30.9199 34.4183 30.2358 34.0761C29.5511 33.7327 27.3475 33.0111 24.733 30.6802C22.6989 28.8665 21.3256 26.6268 20.9265 25.9417C20.5273 25.2576 20.8837 24.8868 21.2268 24.5458C21.5342 24.2392 21.9113 23.7468 22.2538 23.3474C22.5949 22.9478 22.7088 22.6627 22.937 22.2064C23.1653 21.7496 23.051 21.35 22.8802 21.0078C22.7088 20.6655 21.3791 17.2818 20.7707 15.9289" fill="white"/>
</g>
<defs>
<linearGradient id="paint0_linear_1211_23893" x1="27.4998" y1="54.2908" x2="27.4998" y2="0.957031" gradientUnits="userSpaceOnUse">
<stop stop-color="#1FAF38"/>
<stop offset="1" stop-color="#60D669"/>
</linearGradient>
<clipPath id="clip0_1211_23893">
<rect width="55" height="55.4296" fill="white"/>
</clipPath>
</defs>
</svg>
