<svg width="50" height="50" viewBox="0 0 50 50" fill="none" xmlns="http://www.w3.org/2000/svg">
<path d="M25 0.0390625C11.2148 0.0390625 0.0400391 11.2139 0.0400391 24.9991C0.0400391 38.7843 11.2148 49.9591 25 49.9591C38.7852 49.9591 49.96 38.7843 49.96 24.9991C49.96 11.2139 38.7852 0.0390625 25 0.0390625ZM18.89 35.3445H13.8356V19.0789H18.89V35.3445ZM16.3316 17.0821C14.7352 17.0821 13.703 15.9511 13.703 14.5523C13.703 13.1249 14.7664 12.0277 16.3966 12.0277C18.0268 12.0277 19.0252 13.1249 19.0564 14.5523C19.0564 15.9511 18.0268 17.0821 16.3316 17.0821ZM37.35 35.3445H32.2956V26.3303C32.2956 24.2321 31.5624 22.8073 29.7346 22.8073C28.3384 22.8073 27.509 23.7719 27.1424 24.7001C27.0072 25.0303 26.9734 25.4983 26.9734 25.9637V35.3419H21.9164V24.2659C21.9164 22.2353 21.8514 20.5375 21.7838 19.0763H26.1752L26.4066 21.3357H26.508C27.1736 20.2749 28.8038 18.7097 31.5312 18.7097C34.8566 18.7097 37.35 20.9379 37.35 25.7271V35.3445Z" fill="#0E76A8"/>
</svg>
